<?xml version="1.0" encoding="UTF-8"?>
<svg width="20px" height="26px" viewBox="0 0 20 26" version="1.1" xmlns="http://www.w3.org/2000/svg" xmlns:xlink="http://www.w3.org/1999/xlink">
    <!-- Generator: Sketch 61.2 (89653) - https://sketch.com -->
    <title>Group 3</title>
    <desc>Created with Sketch.</desc>
    <defs>
        <polygon id="path-1" points="0 0 20 0 20 26 0 26"></polygon>
    </defs>
    <g id="Event-detail" stroke="none" stroke-width="1" fill="none" fill-rule="evenodd">
        <g id="Desktop-Copy-9" transform="translate(-438.000000, -682.000000)">
            <g id="Group-3" transform="translate(438.000000, 682.000000)">
                <mask id="mask-2" fill="white">
                    <use xlink:href="#path-1"></use>
                </mask>
                <g id="Clip-2"></g>
                <path d="M9.99973579,6.63030752 C8.23444449,6.63030752 6.7980096,8.03113478 6.7980096,9.75322118 C6.7980096,11.474964 8.23444449,12.8757913 9.99973579,12.8757913 C10.8533181,12.8757913 11.6568761,12.5505808 12.262451,11.959945 C12.8680259,11.3693092 13.201462,10.5855744 13.201462,9.75322118 C13.201462,8.03113478 11.7650271,6.63030752 9.99973579,6.63030752 M9.99973579,14.2501619 C7.45730768,14.2501619 5.38887666,12.2327576 5.38887666,9.75322118 C5.38887666,7.27334117 7.45730768,5.25593688 9.99973579,5.25593688 C12.5421639,5.25593688 14.610595,7.27334117 14.610595,9.75322118 C14.6107711,10.9527031 14.130609,12.081405 13.2588841,12.9317969 C12.3871593,13.7820169 11.2295566,14.2501619 9.99973579,14.2501619 M9.99973579,1.37437063 C5.26275926,1.37437063 1.40913294,5.13327431 1.40913294,9.75356477 C1.40913294,10.9576852 1.66136774,12.1068309 2.15843939,13.1688758 C4.36795984,17.8845132 8.55132326,22.8703863 9.99991193,24.5275337 C11.4483245,22.8703863 15.6327447,17.8819363 17.8417368,13.1685322 C18.3389845,12.1075181 18.5908671,10.9583724 18.5908671,9.75356477 C18.5903386,5.13327431 14.7365362,1.37437063 9.99973579,1.37437063 M9.99991193,26 C9.64375358,26 9.30644238,25.8491628 9.07411159,25.5861426 C7.74864591,24.0824094 3.24100577,18.7857568 0.876832974,13.739755 C0.29503721,12.4973239 0,11.1562818 0,9.75356477 C0,4.3754807 4.48579858,0 9.99973579,0 C15.5134969,0 19.9994716,4.3754807 20,9.75356477 C20,11.156969 19.7051389,12.4981829 19.1233432,13.739755 C16.7600511,18.7828362 12.2517064,24.0817222 10.9262407,25.5856273 C10.6933815,25.8491628 10.3558941,26 9.99991193,26" id="Fill-1" fill="#000000" mask="url(#mask-2)"></path>
            </g>
        </g>
    </g>
</svg>