<?xml version="1.0" encoding="UTF-8"?>
<svg width="24px" height="40px" viewBox="0 0 24 40" version="1.1" xmlns="http://www.w3.org/2000/svg" xmlns:xlink="http://www.w3.org/1999/xlink">
    <defs>
        <polygon id="path-1" points="3.17880795e-05 3.125e-05 23.9366623 3.125e-05 23.9366623 40 3.17880795e-05 40"></polygon>
    </defs>
    <g id="Homepage" stroke="none" stroke-width="1" fill="none" fill-rule="evenodd">
        <g transform="translate(-711.000000, -536.000000)">
            <rect id="Rectangle" fill="#FFFFFF" x="0" y="-282" width="1453" height="6432"></rect>
            <g id="Group-6" transform="translate(711.000000, 536.000000)">
                <g id="Group-3">
                    <mask id="mask-2" fill="white">
                        <use xlink:href="#path-1"></use>
                    </mask>
                    <g id="Clip-2"></g>
                    <path d="M22.290151,28.23425 C22.290151,33.3984687 17.2214623,38.3813594 11.9683232,38.3813594 C6.71526358,38.3813594 1.64649536,33.3984687 1.64649536,28.23425 L1.64649536,11.7657344 C1.64649536,6.60159375 6.71526358,1.618625 11.9683232,1.618625 C17.2214623,1.618625 22.290151,6.60159375 22.290151,11.7657344 L22.290151,28.23425 Z M11.9683232,3.125e-05 C5.36887947,3.125e-05 3.17880795e-05,5.278 3.17880795e-05,11.7657344 L3.17880795e-05,28.23425 C3.17880795e-05,34.7219844 5.36887947,40.0000312 11.9683232,40.0000312 C18.5677669,40.0000312 23.936694,34.7219844 23.936694,28.23425 L23.936694,11.7657344 C23.936694,5.278 18.5677669,3.125e-05 11.9683232,3.125e-05 L11.9683232,3.125e-05 Z" id="Fill-1" fill="#000000" mask="url(#mask-2)"></path>
                </g>
                <path d="M11.9999625,8 C11.4475587,8 11,8.47456415 11,9.06012213 L11,13.9397984 C11,14.525118 11.4475587,15 11.9999625,15 C12.5520665,15 13,14.525118 13,13.9397984 L13,9.06012213 C13,8.47456415 12.5523663,8 11.9999625,8" id="Fill-4" fill="#000000"></path>
            </g>
        </g>
    </g>
</svg>